650.68
650.68
650.68
650.68
650.68
650.68
650.68
650.68
650.68
650.68
650.68
650.68
650.68
650.68
650.68
650.68
650.68
650.68
650.68
650.68
650.68
650.68
650.68
650.68
650.68
650.68
650.68
650.68
650.68
650.68
650.68
650.68
650.68
650.68
650.68
650.68
650.68
650.68
650.68
650.68
650.68
650.68
650.68
650.68
650.68
650.68
650.68
650.68
650.68
650.68
650.68
650.68
650.68
650.68
650.68
650.68
650.68
650.68
650.68
650.68
650.68
650.68
650.68
650.68
650.68
650.68
650.68
650.68
650.68
650.68
650.68
650.68
650.68
650.68
650.68
650.68
650.68
650.68
650.68
650.68
650.68
650.68
650.68
650.68
650.68
650.68
650.68
650.68
650.68
650.68
650.68
650.68
650.68
650.68
650.68
650.68
650.68
650.68
650.68
650.68
650.68
650.68
650.68
650.68
650.68
650.68
650.68
650.68
650.68
650.68
650.68
650.68
650.68
650.68
650.68
650.68
650.68
650.68
650.68
650.68
650.68
650.68
650.68
650.68
650.68
650.68
650.68
650.68
650.68
650.68
650.68
650.68
650.68
650.68
650.68
650.68
650.68
650.68
650.68
650.68
650.68
650.68
650.68
650.68
650.68
650.68
650.68
650.68
650.68
650.68
650.68
650.68
650.68
650.68
650.68
650.68
650.68
650.68
650.68
650.68
650.68
650.68
650.68
650.68
650.68
650.68
650.68
650.68
650.68
650.68
650.68
650.68
650.68
650.68
650.68
650.68
650.68
650.68
650.68
650.68
650.68
650.68
650.68
650.68
650.68
650.68
650.68
650.68
650.68
650.68
650.68
650.68
650.68
650.68
650.68
650.68
650.68
650.68
650.68
650.68
650.68
650.68
650.68
650.68
650.68
650.68
650.68
650.68
650.68
650.68
650.68
650.68
650.68
650.68
650.68
650.68
650.68
650.68
650.68
650.68
650.68
650.68
650.68
650.68
650.68
650.68
650.68
650.68
650.68
650.68
650.68
650.68
650.68
650.68
650.68
650.68
650.68
650.68
650.68
650.68
650.68
650.68
650.68
650.68
650.68
650.68
650.68
650.68
650.68
650.68
650.68
650.68
650.68
650.68
650.68
650.68
650.68
650.68
650.68
650.68
650.68
650.68
650.68
650.68
650.68
650.68
650.68
650.68
650.68
650.68
650.68
650.68
650.68
650.68
650.68
650.68
650.68
650.68
650.68
650.68
650.68
650.68
650.68
650.68
650.68
650.68
650.68
650.68
650.68
650.68
650.68
650.68
650.68
650.68
650.68
650.68
650.68
650.68
650.68
650.68
650.68
650.68
650.68
650.68
650.68
650.68
650.68
650.68
650.68
650.68
650.68
650.68
650.68
650.68
650.68
650.68
650.68
650.68
650.68
650.68
650.68
650.68
650.68
650.68
650.68
650.68
650.68
650.68
650.68
650.68
650.68
650.68
650.68
650.68
650.68
650.68
650.68
650.68
650.68
650.68
650.68
650.68
650.68
650.68
650.68
650.68
650.68
650.68
650.68
650.68
650.68
650.68
650.68
650.68
650.68
650.68
650.68
650.68
650.68
650.68
650.68
650.68
650.68
650.68
650.68
650.68
650.68
650.68
650.68
650.68
650.68
650.68
650.68
650.68
650.68
650.68
650.68
650.68
650.68
650.68
650.68
650.68
650.68
650.68
650.68
650.68
650.68
650.68
650.68
650.68
650.68
650.68
650.68
650.68
650.68
650.68
650.68
650.68
650.68
650.68
650.68
650.68
650.68
650.68
650.68
650.68
650.68
650.68
650.68
650.68
650.68
650.68
650.68
650.68
650.68
650.68
650.68
650.68
650.68
650.68
650.68
650.68
650.68
650.68
650.68
650.68
650.68
650.68
650.68
650.68
650.68
650.68
650.68
650.68
650.68
650.68
650.68
650.68
650.68
650.68
650.68
650.68
650.68
650.68
650.68
650.68
650.68
650.68
650.68
650.68
650.68
650.68
650.68
650.68
650.68
650.68
650.68
650.68
650.68
650.68
650.68
650.68
650.68
650.68
650.68
650.68
650.68
650.68
650.68
650.68
650.68
650.68
650.68
650.68
650.68
650.68
650.68
650.68
650.68
650.68
650.68
650.68
650.68
650.68
650.68
650.68
650.68
650.68
650.68
650.68
650.68
650.68
650.68
650.68
650.68
650.68
650.68
650.68
650.68
650.68
650.68
650.68
650.68
650.68
650.68
650.68
650.68
650.68
650.68
650.68
650.68
650.68
650.68
650.68
650.68
650.68
650.68
650.68
650.68
650.68
650.68
650.68
650.68
650.68
650.68
650.68
650.68
650.68
650.68
650.68
650.68
650.68
650.68
650.68
650.68
650.68
650.68
650.68
650.68
650.68
650.68
650.68
650.68
650.68
650.68
650.68
650.68
650.68
650.68
650.68
650.68
650.68
650.68
650.68
650.68
650.68
650.68
650.68
650.68
650.68
650.68
650.68
650.68
650.68
650.68
650.68
650.68
650.68
650.68
650.68
650.68
650.68
650.68
650.68
650.68
650.68
650.68
650.68
650.68
650.68
650.68
650.68
650.68
650.68
650.68
650.68
650.68
650.68
650.68
650.68
650.68
650.68
650.68
650.68
650.68
650.68
650.68
650.68
650.68
650.68
650.68
650.68
650.68
650.68
650.68
650.68
650.68
650.68
650.68
650.68
650.68
650.68
650.68
650.68
650.68
650.68
650.68
650.68
650.68
650.68
650.68
650.68
650.68
650.68
650.68
650.68
650.68
650.68
650.68
650.68
650.68
650.68
650.68
650.68
650.68
650.68
650.68
650.68
650.68
650.68
650.68
650.68
650.68
650.68
650.68
650.68
650.68
650.68
650.68
650.68
650.68
650.68
650.68
650.68
650.68
650.68
650.68
650.68
650.68
650.68
650.68
650.68
650.68
650.68
650.68
650.68
650.68
650.68
650.68
650.68
650.68
650.68
650.68
650.68
650.68
650.68
650.68
650.68
650.68
650.68
650.68
650.68
650.68
650.68
650.68
650.68
650.68
650.68
650.68
650.68
650.68
650.68
650.68
650.68
650.68
650.68
650.68
650.68
650.68
650.68
650.68
650.68
650.68
650.68
650.68
650.68
650.68
650.68
650.68
650.68
650.68
650.68
650.68
650.68
650.68
650.68
650.68
650.68
650.68
650.68
650.68
650.68
650.68
650.68
650.68
650.68
650.68
650.68
650.68
650.68
650.68
650.68
650.68
650.68
650.68
650.68
650.68
650.68
650.68
650.68
650.68
650.68
650.68
650.68
650.68
650.68
650.68
650.68
650.68
650.68
650.68
650.68
650.68
650.68
650.68
650.68
650.68
650.68
650.68
650.68
650.68
650.68
650.68
650.68
650.68
650.68
650.68
650.68
650.68
650.68
650.68
650.68
650.68
650.68
650.68
650.68
650.68
650.68
650.68
650.68
650.68
650.68
650.68
650.68
650.68
650.68
650.68
650.68
650.68
650.68
650.68
650.68
650.68
650.68
650.68
650.68
650.68
650.68
650.68
650.68
650.68
650.68
650.68
650.68
650.68
650.68
650.68
650.68
650.68
650.68
650.68
650.68
650.68
650.68
650.68
650.68
650.68
650.68
650.68
650.68
650.68
650.68
650.68
650.68
650.68
650.68
650.68
650.68
650.68
650.68
650.68
650.68
650.68
650.68
650.68
650.68
650.68
650.68
650.68
650.68
650.68
650.68
650.68
650.68
650.68
650.68
650.68
650.68
650.68
650.68
650.68
650.68
650.68
650.68
650.68
650.68
650.68
650.68
650.68
650.68
650.68
650.68
650.68
650.68
650.68
650.68
650.68
650.68
650.68
650.68
650.68
650.68
650.68
650.68
650.68
650.68
650.68
650.68
650.68
650.68
650.68
650.68
650.68
650.68
650.68
650.68
650.68
650.68
650.68
650.68
650.68
650.68
650.68
650.68
650.68
650.68
650.68
650.68
650.68
650.68
650.68
650.68
650.68
650.68
650.68
650.68
650.68
650.68
650.68
650.68
650.68
650.68
650.68
650.68
650.68
650.68
650.68
650.68
650.68
650.68
650.68
650.68
650.68
650.68
650.68
650.68
650.68
650.68
650.68
650.68
650.68
650.68
650.68
650.68
650.68
650.68
650.68
650.68
650.68
650.68
650.68
650.68
650.68
650.68
650.68
650.68
650.68
650.68
650.68
650.68
650.68
650.68
650.68
650.68
650.68
650.68
650.68
650.68
650.68
650.68
650.68
650.68
650.68
650.68
650.68
650.68
650.68
650.68
650.68
650.68
650.68
650.68
650.68
650.68
650.68
650.68
650.68
650.68
650.68
650.68
650.68
650.68
650.68
650.68
650.68
650.68
650.68
650.68
650.68
650.68
650.68
650.68
650.68
650.68
650.68
650.68
650.68
650.68
650.68
650.68
650.68
650.68
650.68
650.68
650.68
650.68
650.68
650.68
650.68
650.68
650.68
650.68
650.68
650.68
650.68
650.68
650.68
650.68
650.68
650.68
650.68
650.68
650.68
650.68
650.68
650.68
650.68
650.68
650.68
650.68
650.68
650.68
650.68
650.68
650.68
650.68
650.68
650.68
650.68
650.68
650.68
650.68
650.68
650.68
650.68
650.68
650.68
650.68
650.68
650.68
650.68
650.68
650.68
650.68
650.68
650.68
650.68
650.68
650.68
650.68
650.68
650.68
650.68
650.68
650.68
650.68
650.68
650.68
650.68
650.68
650.68
650.68
650.68
650.68
650.68
650.68
650.68
650.68
650.68
650.68
650.68
650.68
650.68
650.68
650.68
650.68
650.68
650.68
650.68
650.68
650.68
650.68
650.68
650.68
650.68
650.68
650.68
650.68
650.68
650.68
650.68
650.68
650.68
650.68
650.68
650.68
650.68
650.68
650.68
650.68
650.68
650.68
650.68
650.68
650.68
650.68
650.68
650.68
650.68
650.68
650.68
650.68
650.68
650.68
650.68
650.68
650.68
650.68
650.68
650.68
650.68
650.68
650.68
650.68
650.68
650.68
650.68
650.68
650.68
650.68
650.68
650.68
650.68
650.68
650.68
650.68
650.68
650.68
650.68
650.68
650.68
650.68
650.68
650.68
650.68
650.68
650.68
650.68
650.68
650.68
650.68
650.68
650.68
650.68
650.68
650.68
650.68
650.68
650.68
650.68
650.68
650.68
650.68
650.68
650.68
650.68
650.68
650.68
650.68
650.68
650.68
650.68
650.68
650.68
650.68
650.68
650.68
650.68
650.68
650.68
650.68
650.68
650.68
650.68
650.68
650.68
650.68
650.68
650.68
650.68
650.68
650.68
650.68
650.68
650.68
650.68
650.68
650.68
650.68
650.68
650.68
650.68
650.68
650.68
650.68
650.68
650.68
650.68
650.68
650.68
650.68
650.68
650.68
650.68
650.68
650.68
650.68
650.68
650.68
650.68
650.68
650.68
650.68
650.68
650.68
650.68
650.68
650.68
650.68
650.68
650.68
650.68
650.68
650.68
650.68
650.68
650.68
650.68
650.68
650.68
650.68
650.68
650.68
650.68
650.68
650.68
650.68
650.68
650.68
650.68
650.68
650.68
650.68
650.68
650.68
650.68
650.68
650.68
650.68
650.68
650.68
650.68
650.68
650.68
650.68
650.68
650.68
650.68
650.68
650.68
650.68
650.68
650.68
650.68
650.68
650.68
650.68
650.68
650.68
650.68
650.68
650.68
650.68
650.68
650.68
650.68
650.68
650.68
650.68
650.68
650.68
650.68
650.68
650.68
650.68
650.68
650.68
650.68
650.68
650.68
650.68
650.68
650.68
650.68
650.68
650.68
650.68
650.68
650.68
650.68
650.68
650.68
650.68
650.68
650.68
650.68
650.68
650.68
650.68
650.68
650.68
650.68
650.68
650.68
650.68
650.68
650.68
650.68
650.68
650.68
650.68
650.68
650.68
650.68
650.68
650.68
650.68
650.68
650.68
650.68
650.68
650.68
650.68
650.68
650.68
650.68
650.68
650.68
650.68
650.68
650.68
650.68
650.68
650.68
650.68
650.68
650.68
650.68
650.68
650.68
650.68
650.68
650.68
650.68
650.68
650.68
650.68
650.68
650.68
650.68
650.68
650.68
650.68
650.68
650.68
650.68
650.68
650.68
650.68
650.68
650.68
650.68
650.68
650.68
650.68
650.68
650.68
650.68
650.68
650.68
650.68
650.68
650.68
650.68
650.68
650.68
650.68
650.68
650.68
650.68
650.68
650.68
650.68
650.68
650.68
650.68
650.68
650.68
650.68
650.68
650.68
650.68
650.68
650.68
650.68
650.68
650.68
650.68
650.68
650.68
650.68
650.68
650.68
650.68
650.68
650.68
650.68
650.68
650.68
650.68
650.68
650.68
650.68
650.68
650.68
650.68
650.68
650.68
650.68
650.68
650.68
650.68
650.68
650.68
650.68
650.68
650.68
650.68
650.68
650.68
650.68
650.68
650.68
650.68
650.68
650.68
650.68
650.68
650.68
650.68
650.68
650.68
650.68
650.68
650.68
650.68
650.68
650.68
650.68
650.68
650.68
650.68
650.68
650.68
650.68
650.68
650.68
650.68
650.68
650.68
650.68
650.68
650.68
650.68
650.68
650.68
650.68
650.68
650.68
650.68
650.68
650.68
650.68
650.68
650.68
650.68
650.68
650.68
650.68
650.68
650.68
650.68
650.68
650.68
650.68
650.68
650.68
650.68
650.68
650.68
650.68
650.68
650.68
650.68
650.68
650.68
650.68
650.68
650.68
650.68
650.68
650.68
650.68
650.68
650.68
650.68
650.68
650.68
650.68
650.68
650.68
650.68
650.68
650.68
650.68
650.68
650.68
650.68
650.68
650.68
650.68
650.68
650.68
650.68
650.68
650.68
650.68
650.68
650.68
650.68
650.68
650.68
650.68
650.68
650.68
650.68
650.68
650.68
650.68
650.68
650.68
650.68
650.68
650.68
650.68
650.68
650.68
650.68
650.68
650.68
650.68
650.68
650.68
650.68
650.68
650.68
650.68
650.68
650.68
650.68
650.68
650.68
650.68
650.68
650.68
650.68
650.68
650.68
650.68
650.68
650.68
650.68
650.68
650.68
650.68
650.68
650.68
650.68
650.68
650.68
650.68
650.68
650.68
650.68
650.68
650.68
650.68
650.68
650.68
650.68
650.68
650.68
650.68
650.68
650.68
650.68
650.68
650.68
650.68
650.68
650.68
650.68
650.68
650.68
650.68
650.68
650.68
650.68
650.68
650.68
650.68
650.68
650.68
650.68
650.68
650.68
650.68
650.68
650.68
650.68
650.68
650.68
650.68
650.68
650.68
650.68
650.68
650.68
650.68
650.68
650.68
650.68
650.68
650.68
650.68
650.68
650.68
650.68
650.68
650.68
650.68
650.68
650.68
650.68
650.68
650.68
650.68
650.68
650.68
650.68
650.68
650.68
650.68
650.68
650.68
650.68
650.68
650.68
650.68
650.68
650.68
650.68
650.68
650.68
650.68
650.68
650.68
650.68
650.68
650.68
650.68
650.68
650.68
650.68
650.68
650.68
650.68
650.68
650.68
650.68
650.68
650.68
650.68
650.68
650.68
650.68
650.68
650.68
650.68
650.68
650.68
650.68
650.68
650.68
650.68
650.68
650.68
650.68
650.68
650.68
650.68
650.68
650.68
650.68
650.68
650.68
650.68
650.68
650.68
650.68
650.68
650.68
650.68
650.68
650.68
650.68
650.68
650.68
650.68
650.68
650.68
650.68
650.68
650.68
650.68
650.68
650.68
650.68
650.68
650.68
650.68
650.68
650.68
650.68
650.68
650.68
650.68
650.68
650.68
650.68
650.68
650.68
650.68
650.68
650.68
650.68
650.68
650.68
650.68
650.68
650.68
650.68
650.68
650.68
650.68
650.68
650.68
650.68
650.68
650.68
650.68
650.68
650.68
650.68
650.68
650.68
650.68
650.68
650.68
650.68
650.68
650.68
650.68
650.68
650.68
650.68
650.68
650.68
650.68
650.68
650.68
650.68
650.68
650.68
650.68
650.68
650.68
650.68
650.68
650.68
650.68
650.68
650.68
650.68
650.68
650.68
650.68
650.68
650.68
650.68
650.68
650.68
650.68
650.68
650.68
650.68
650.68
650.68
650.68
650.68
650.68
650.68
650.68
650.68
650.68
650.68
650.68
650.68
650.68
650.68
650.68
650.68
650.68
650.68
650.68
650.68
650.68
650.68
650.68
650.68
650.68
650.68
650.68
650.68
650.68
650.68
650.68
650.68
650.68
650.68
650.68
650.68
650.68
650.68
650.68
650.68
650.68
650.68
650.68
650.68
650.68
650.68
650.68
650.68
650.68
650.68
650.68
650.68
650.68
650.68
650.68
650.68
650.68
650.68
650.68
650.68
650.68
650.68
650.68
650.68
650.68
650.68
650.68
650.68
650.68
650.68
650.68
650.68
650.68
650.68
650.68
650.68
650.68
650.68
650.68
650.68
650.68
650.68
650.68
650.68
650.68
650.68
650.68
650.68
650.68
650.68
650.68
650.68
650.68
650.68
650.68
650.68
650.68
650.68
650.68
650.68
650.68
650.68
650.68
650.68
650.68
650.68
650.68
650.68
650.68
650.68
650.68
650.68
650.68
650.68
650.68
650.68
650.68
650.68
650.68
650.68
650.68
650.68
650.68
650.68
650.68
650.68
650.68
650.68
650.68
650.68
650.68
650.68
650.68
650.68
650.68
650.68
650.68
650.68
650.68
650.68
650.68
650.68
650.68
650.68
650.68
650.68
650.68
650.68
650.68
650.68
650.68
650.68
650.68
650.68
650.68
650.68
650.68
650.68
650.68
650.68
650.68
650.68
650.68
650.68
650.68
650.68
650.68
650.68
650.68
650.68
650.68
650.68
650.68
650.68
650.68
650.68
650.68
650.68
650.68
650.68
650.68
650.68
650.68
650.68
650.68
650.68
650.68
650.68
650.68
650.68
650.68
650.68
650.68
650.68
650.68
650.68
650.68
650.68
650.68
650.68
650.68
650.68
650.68
650.68
650.68
650.68
650.68
650.68
650.68
650.68
650.68
650.68
650.68
650.68
650.68
650.68
650.68
650.68
650.68
650.68
650.68
650.68
650.68
650.68
650.68
650.68
650.68
650.68
650.68
650.68
650.68
650.68
650.68
650.68
650.68
650.68
650.68
650.68
650.68
650.68
650.68
650.68
650.68
650.68
650.68
650.68
650.68
650.68
650.68
650.68
650.68
650.68
650.68
650.68
650.68
650.68
650.68
650.68
650.68
650.68
650.68
650.68
650.68
650.68
650.68
650.68
650.68
650.68
650.68
650.68
650.68
650.68
650.68
650.68
650.68
650.68
650.68
650.68
650.68
650.68
650.68
650.68
650.68
650.68
650.68
650.68
650.68
650.68
650.68
650.68
650.68
650.68
650.68
650.68
650.68
650.68
650.68
650.68
650.68
650.68
650.68
650.68
650.68
650.68
650.68
650.68
650.68
650.68
650.68
650.68
650.68
650.68
650.68
650.68
650.68
650.68
650.68
650.68
650.68
650.68
650.68
650.68
650.68
650.68
650.68
650.68
650.68
650.68
650.68
650.68
650.68
650.68
650.68
650.68
650.68
650.68
650.68
650.68
650.68
650.68
650.68
650.68
650.68
650.68
650.68
650.68
650.68
650.68
650.68
650.68
650.68
650.68
650.68
650.68
650.68
650.68
650.68
650.68
650.68
650.68
650.68
650.68
650.68
650.68
650.68
650.68
650.68
650.68
650.68
650.68
650.68
650.68
650.68
650.68
650.68
650.68
650.68
650.68
650.68
650.68
650.68
650.68
650.68
650.68
650.68
650.68
650.68
650.68
650.68
650.68
650.68
650.68
650.68
650.68
650.68
650.68
650.68
650.68
650.68
650.68
650.68
650.68
650.68
650.68
650.68
650.68
650.68
650.68
650.68
650.68
650.68
650.68
650.68
650.68
650.68
650.68
650.68
650.68
650.68
650.68
650.68
650.68
650.68
650.68
650.68
650.68
650.68
650.68
650.68
650.68
650.68
650.68
650.68
650.68
650.68
650.68
650.68
650.68
650.68
650.68
650.68
650.68
650.68
650.68
650.68
650.68
650.68
650.68
650.68
650.68
650.68
650.68
650.68
650.68
650.68
650.68
650.68
650.68
650.68
650.68
650.68
650.68
650.68
650.68
650.68
650.68
650.68
650.68
650.68
650.68
650.68
650.68
650.68
650.68
650.68
650.68
650.68
650.68
650.68
650.68
650.68
650.68
650.68
650.68
650.68
650.68
650.68
650.68
650.68
650.68
650.68
650.68
650.68
650.68
650.68
650.68
650.68
650.68
650.68
650.68
650.68
650.68
650.68
650.68
650.68
650.68
650.68
650.68
650.68
650.68
650.68
650.68
650.68
650.68
650.68
650.68
650.68
650.68
650.68
650.68
650.68
650.68
650.68
650.68
650.68
650.68
650.68
650.68
650.68
650.68
650.68
650.68
650.68
650.68
650.68
650.68
650.68
650.68
650.68
650.68
650.68
650.68
650.68
650.68
650.68
650.68
650.68
650.68
650.68
650.68
650.68
650.68
650.68
650.68
650.68
650.68
650.68
650.68
650.68
650.68
650.68
650.68
650.68
650.68
650.68
650.68
650.68
650.68
650.68
650.68
650.68
650.68
650.68
650.68
650.68
650.68
650.68
650.68
650.68
650.68
650.68
650.68
650.68
650.68
650.68
650.68
650.68
650.68
650.68
650.68
650.68
650.68
650.68
650.68
650.68
650.68
650.68
650.68
650.68
650.68
650.68
650.68
650.68
650.68
650.68
650.68
650.68
650.68
650.68
650.68
650.68
650.68
650.68
650.68
650.68
650.68
650.68
650.68
650.68
650.68
650.68
650.68
650.68
650.68
650.68
650.68
650.68
650.68
650.68
650.68
650.68
650.68
650.68
650.68
650.68
650.68
650.68
650.68
650.68
650.68
650.68
650.68
650.68
650.68
650.68
650.68
650.68
650.68
650.68
650.68
650.68
650.68
650.68
650.68
650.68
650.68
650.68
650.68
650.68
650.68
650.68
650.68
650.68
650.68
650.68
650.68
650.68
650.68
650.68
650.68
650.68
650.68
650.68
650.68
650.68
650.68
650.68
650.68
650.68
650.68
650.68
650.68
650.68
650.68
650.68
650.68
650.68
650.68
650.68
650.68
650.68
650.68
650.68
650.68
650.68
650.68
650.68
650.68
650.68
650.68
650.68
650.68
650.68
650.68
650.68
650.68
650.68
650.68
650.68
650.68
650.68
650.68
650.68
650.68
650.68
650.68
650.68
650.68
650.68
650.68
650.68
650.68
650.68
650.68
650.68
650.68
650.68
650.68
650.68
650.68
650.68
650.68
650.68
650.68
650.68
650.68
650.68
650.68
650.68
650.68
650.68
650.68
650.68
650.68
650.68
650.68
650.68
650.68
650.68
650.68
650.68
650.68
650.68
650.68
650.68
650.68
650.68
650.68
650.68
650.68
650.68
650.68
650.68
650.68
650.68
650.68
650.68
650.68
650.68
650.68
650.68
650.68
650.68
650.68
650.68
650.68
650.68
650.68
650.68
650.68
650.68
650.68
650.68
650.68
650.68
650.68
650.68
650.68
650.68
650.68
650.68
650.68
650.68
650.68
650.68
650.68
650.68
650.68
650.68
650.68
650.68
650.68
650.68
650.68
650.68
650.68
650.68
650.68
650.68
650.68
650.68
650.68
650.68
650.68
650.68
650.68
650.68
650.68
650.68
650.68
650.68
650.68
650.68
650.68
650.68
650.68
650.68
650.68
650.68
650.68
650.68
650.68
650.68
650.68
650.68
650.68
650.68
650.68
650.68
650.68
650.68
650.68
650.68
650.68
650.68
650.68
650.68
650.68
650.68
650.68
650.68
650.68
650.68
650.68
650.68
650.68
650.68
650.68
650.68
650.68
650.68
650.68
650.68
650.68
650.68
650.68
650.68
650.68
650.68
650.68
650.68
650.68
650.68
650.68
650.68
650.68
650.68
650.68
650.68
650.68
650.68
650.68
650.68
650.68
650.68
650.68
650.68
650.68
650.68
650.68
650.68
650.68
650.68
650.68
650.68
650.68
650.68
650.68
650.68
650.68
650.68
650.68
650.68
650.68
650.68
650.68
650.68
650.68
650.68
650.68
650.68
650.68
650.68
650.68
650.68
650.68
650.68
650.68
650.68
650.68
650.68
650.68
650.68
650.68
650.68
650.68
650.68
650.68
650.68
650.68
650.68
650.68
650.68
650.68
650.68
650.68
650.68
650.68
650.68
650.68
650.68
650.68
650.68
650.68
650.68
650.68
650.68
650.68
650.68
650.68
650.68
650.68
650.68
650.68
650.68
650.68
650.68
650.68
650.68
650.68
650.68
650.68
650.68
650.68
650.68
650.68
650.68
650.68
650.68
650.68
650.68
650.68
650.68
650.68
650.68
650.68
650.68
650.68
650.68
650.68
650.68
650.68
650.68
650.68
650.68
650.68
650.68
650.68
650.68
650.68
650.68
650.68
650.68
650.68
650.68
650.68
650.68
650.68
650.68
650.68
650.68
650.68
650.68
650.68
650.68
650.68
650.68
650.68
650.68
650.68
650.68
650.68
650.68
650.68
650.68
650.68
650.68
650.68
650.68
650.68
650.68
650.68
650.68
650.68
650.68
650.68
650.68
650.68
650.68
650.68
650.68
650.68
650.68
650.68
650.68
650.68
650.68
650.68
650.68
650.68
650.68
650.68
650.68
650.68
650.68
650.68
650.68
650.68
650.68
650.68
650.68
650.68
650.68
650.68
650.68
650.68
650.68
650.68
650.68
650.68
650.68
650.68
650.68
650.68
650.68
650.68
650.68
650.68
650.68
650.68
650.68
650.68
650.68
650.68
650.68
650.68
650.68
650.68
650.68
650.68
650.68
650.68
650.68
650.68
650.68
650.68
650.68
650.68
650.68
650.68
650.68
650.68
650.68
650.68
650.68
650.68
650.68
650.68
650.68
650.68
650.68
650.68
650.68
650.68
650.68
650.68
650.68
650.68
650.68
650.68
650.68
650.68
650.68
650.68
650.68
650.68
650.68
650.68
650.68
650.68
650.68
650.68
650.68
650.68
650.68
650.68
650.68
650.68
650.68
650.68
650.68
650.68
650.68
650.68
650.68
650.68
650.68
650.68
650.68
650.68
650.68
650.68
650.68
650.68
650.68
650.68
650.68
650.68
650.68
650.68
650.68
650.68
650.68
650.68
650.68
650.68
650.68
650.68
650.68
650.68
650.68
650.68
650.68
650.68
650.68
650.68
650.68
650.68
650.68
650.68
650.68
650.68
650.68
650.68
650.68
650.68
650.68
650.68
650.68
650.68
650.68
650.68
650.68
650.68
650.68
650.68
650.68
650.68
650.68
650.68
650.68
650.68
650.68
650.68
650.68
650.68
650.68
650.68
650.68
650.68
650.68
650.68
650.68
650.68
650.68
650.68
650.68
650.68
650.68
650.68
650.68
650.68
650.68
650.68
650.68
650.68
650.68
650.68
650.68
650.68
650.68
650.68
650.68
650.68
650.68
650.68
650.68
650.68
650.68
650.68
650.68
650.68
650.68
650.68
650.68
650.68
650.68
650.68
650.68
650.68
650.68
650.68
650.68
650.68
650.68
650.68
650.68
650.68
650.68
650.68
650.68
650.68
650.68
650.68
650.68
650.68
650.68
650.68
650.68
650.68
650.68
650.68
650.68
650.68
650.68
650.68
650.68
650.68
650.68
650.68
650.68
650.68
650.68
650.68
650.68
650.68
650.68
650.68
650.68
650.68
650.68
650.68
650.68
650.68
650.68
650.68
650.68
650.68
650.68
650.68
650.68
650.68
650.68
650.68
650.68
650.68
650.68
650.68
650.68
650.68
650.68
650.68
650.68
650.68
650.68
650.68
650.68
650.68
650.68
650.68
650.68
650.68
650.68
650.68
650.68
650.68
650.68
650.68
650.68
650.68
650.68
650.68
650.68
650.68
650.68
650.68
650.68
650.68
650.68
650.68
650.68
650.68
650.68
650.68
650.68
650.68
650.68
650.68
650.68
650.68
650.68
650.68
650.68
650.68
650.68
650.68
650.68
650.68
650.68
650.68
650.68
650.68
650.68
650.68
650.68
650.68
650.68
650.68
650.68
650.68
650.68
650.68
650.68
650.68
650.68
650.68
650.68
650.68
650.68
650.68
650.68
650.68
650.68
650.68
650.68
650.68
650.68
650.68
650.68
650.68
650.68
650.68
650.68
650.68
650.68
650.68
650.68
650.68
650.68
650.68
650.68
650.68
650.68
650.68
650.68
650.68
650.68
650.68
650.68
650.68
650.68
650.68
650.68
650.68
650.68
650.68
650.68
650.68
650.68
650.68
650.68
650.68
650.68
650.68
650.68
650.68
650.68
650.68
650.68
650.68
650.68
650.68
650.68
650.68
650.68
650.68
650.68
650.68
650.68
650.68
650.68
650.68
650.68
650.68
650.68
650.68
650.68
650.68
650.68
650.68
650.68
650.68
650.68
650.68
650.68
650.68
650.68
650.68
650.68
650.68
650.68
650.68
650.68
650.68
650.68
650.68
650.68
650.68
650.68
650.68
650.68
650.68
650.68
650.68
650.68
650.68
650.68
650.68
650.68
650.68
650.68
650.68
650.68
650.68
650.68
650.68
650.68
650.68
650.68
650.68
650.68
650.68
650.68
650.68
650.68
650.68
650.68
650.68
650.68
650.68
650.68
650.68
650.68
650.68
650.68
650.68
650.68
650.68
650.68
650.68
650.68
650.68
650.68
650.68
650.68
650.68
650.68
650.68
650.68
650.68
650.68
650.68
650.68
650.68
650.68
650.68
650.68
650.68
650.68
650.68
650.68
650.68
650.68
650.68
650.68
650.68
650.68
650.68
650.68
650.68
650.68
650.68
650.68
650.68
650.68
650.68
650.68
650.68
650.68
650.68
650.68
650.68
650.68
650.68
650.68
650.68
650.68
650.68
650.68
650.68
650.68
650.68
650.68
650.68
650.68
650.68
650.68
650.68
650.68
650.68
650.68
650.68
650.68
650.68
650.68
650.68
650.68
650.68
650.68
650.68
650.68
650.68
650.68
650.68
650.68
650.68
650.68
650.68
650.68
650.68
650.68
650.68
650.68
650.68
650.68
650.68
650.68
650.68
650.68
650.68
650.68
650.68
650.68
650.68
650.68
650.68
650.68
650.68
650.68
650.68
650.68
650.68
650.68
650.68
650.68
650.68
650.68
650.68
650.68
650.68
650.68
650.68
650.68
650.68
650.68
650.68
650.68
650.68
650.68
650.68
650.68
650.68
650.68
650.68
650.68
650.68
650.68
650.68
650.68
650.68
650.68
650.68
650.68
650.68
650.68
650.68
650.68
650.68
650.68
650.68
650.68
650.68
650.68
650.68
650.68
650.68
650.68
650.68
650.68
650.68
650.68
650.68
650.68
650.68
650.68
650.68
650.68
650.68
650.68
650.68
650.68
650.68
650.68
650.68
650.68
650.68
650.68
650.68
650.68
650.68
650.68
650.68
650.68
650.68
650.68
650.68
650.68
650.68
650.68
650.68
650.68
650.68
650.68
650.68
650.68
650.68
650.68
650.68
650.68
650.68
650.68
650.68
650.68
650.68
650.68
650.68
650.68
650.68
650.68
650.68
650.68
650.68
650.68
650.68
650.68
650.68
650.68
650.68
650.68
650.68
650.68
650.68
650.68
650.68
650.68
650.68
650.68
650.68
650.68
650.68
650.68
650.68
650.68
650.68
650.68
650.68
650.68
650.68
650.68
650.68
650.68
650.68
650.68
650.68
650.68
650.68
650.68
650.68
650.68
650.68
650.68
650.68
650.68
650.68
650.68
650.68
650.68
650.68
650.68
650.68
650.68
650.68
650.68
650.68
650.68
650.68
650.68
650.68
650.68
650.68
650.68
650.68
650.68
650.68
650.68
650.68
650.68
650.68
650.68
650.68
650.68
650.68
650.68
650.68
650.68
650.68
650.68
650.68
650.68
650.68
650.68
650.68
650.68
650.68
650.68
650.68
650.68
650.68
650.68
650.68
650.68
650.68
650.68
650.68
650.68
650.68
650.68
650.68
650.68
650.68
650.68
650.68
650.68
650.68
650.68
650.68
650.68
650.68
650.68
650.68
650.68
650.68
650.68
650.68
650.68
650.68
650.68
650.68
650.68
650.68
650.68
650.68
650.68
650.68
650.68
650.68
650.68
650.68
650.68
650.68
650.68
650.68
650.68
650.68
650.68
650.68
650.68
650.68
650.68
650.68
650.68
650.68
650.68
650.68
650.68
650.68
650.68
650.68
650.68
650.68
650.68
650.68
650.68
650.68
650.68
650.68
650.68
650.68
650.68
650.68
650.68
650.68
650.68
650.68
650.68
650.68
650.68
650.68
650.68
650.68
650.68
650.68
650.68
650.68
650.68
650.68
650.68
650.68
650.68
650.68
650.68
650.68
650.68
650.68
650.68
650.68
650.68
650.68
650.68
650.68
650.68
650.68
650.68
650.68
650.68
650.68
650.68
650.68
650.68
650.68
650.68
650.68
650.68
650.68
650.68
650.68
650.68
650.68
650.68
650.68
650.68
650.68
650.68
650.68
650.68
650.68
650.68
650.68
650.68
650.68
650.68
650.68
650.68
650.68
650.68
650.68
650.68
650.68
650.68
650.68
650.68
650.68
650.68
650.68
650.68
650.68
650.68
650.68
650.68
650.68
650.68
650.68
650.68
650.68
650.68
650.68
650.68
650.68
650.68
650.68
650.68
650.68
650.68
650.68
650.68
650.68
650.68
650.68
650.68
650.68
650.68
650.68
650.68
650.68
650.68
650.68
650.68
650.68
650.68
650.68
650.68
650.68
650.68
650.68
650.68
650.68
650.68
650.68
650.68
650.68
650.68
650.68
650.68
650.68
650.68
650.68
650.68
650.68
650.68
650.68
650.68
650.68
650.68
650.68
650.68
650.68
650.68
650.68
650.68
650.68
650.68
650.68
650.68
650.68
650.68
650.68
650.68
650.68
650.68
650.68
650.68
650.68
650.68
650.68
650.68
650.68
650.68
650.68
650.68
650.68
650.68
650.68
650.68
650.68
650.68
650.68
650.68
650.68
650.68
650.68
650.68
650.68
650.68
650.68
650.68
650.68
650.68
650.68
650.68
650.68
650.68
650.68
650.68
650.68
650.68
650.68
650.68
650.68
650.68
650.68
650.68
650.68
650.68
650.68
650.68
650.68
650.68
650.68
650.68
650.68
650.68
650.68
650.68
650.68
650.68
650.68
650.68
650.68
650.68
650.68
650.68
650.68
650.68
650.68
650.68
650.68
650.68
650.68
650.68
650.68
650.68
650.68
650.68
650.68
650.68
650.68
650.68
650.68
650.68
650.68
650.68
650.68
650.68
650.68
650.68
650.68
650.68
650.68
650.68
650.68
650.68
650.68
650.68
650.68
650.68
650.68
650.68
650.68
650.68
650.68
650.68
650.68
650.68
650.68
650.68
650.68
650.68
650.68
650.68
650.68
650.68
650.68
650.68
650.68
650.68
650.68
650.68
650.68
650.68
650.68
650.68
650.68
650.68
650.68
650.68
650.68
650.68
650.68
650.68
650.68
650.68
650.68
650.68
650.68
650.68
650.68
650.68
650.68
650.68
650.68
650.68
650.68
650.68
650.68
650.68
650.68
650.68
650.68
650.68
650.68
650.68
650.68
650.68
650.68
650.68
650.68
650.68
650.68
650.68
650.68
650.68
650.68
650.68
650.68
650.68
650.68
650.68
650.68
650.68
650.68
650.68
650.68
650.68
650.68
650.68
650.68
650.68
650.68
650.68
650.68
650.68
650.68
650.68
650.68
650.68
650.68
650.68
650.68
650.68
650.68
650.68
650.68
650.68
650.68
650.68
650.68
650.68
650.68
650.68
650.68
650.68
650.68
650.68
650.68
650.68
650.68
650.68
650.68
650.68
650.68
650.68
650.68
650.68
650.68
650.68
650.68
650.68
650.68
650.68
650.68
650.68
650.68
650.68
650.68
650.68
650.68
650.68
650.68
650.68
650.68
650.68
650.68
650.68
650.68
650.68
650.68
650.68
650.68
650.68
650.68
650.68
650.68
650.68
650.68
650.68
650.68
650.68
650.68
650.68
650.68
650.68
650.68
650.68
650.68
650.68
650.68
650.68
650.68
650.68
650.68
650.68
650.68
650.68
650.68
650.68
650.68
650.68
650.68
650.68
650.68
650.68
650.68
650.68
650.68
650.68
650.68
650.68
650.68
650.68
650.68
650.68
650.68
650.68
650.68
650.68
650.68
650.68
650.68
650.68
650.68
650.68
650.68
650.68
650.68
650.68
650.68
650.68
650.68
650.68
650.68
650.68
650.68
650.68
650.68
650.68
650.68
650.68
650.68
650.68
650.68
650.68
650.68
650.68
650.68
650.68
650.68
650.68
650.68
650.68
650.68
650.68
650.68
650.68
650.68
650.68
650.68
650.68
650.68
650.68
650.68
650.68
650.68
650.68
650.68
650.68
650.68
650.68
650.68
650.68
650.68
650.68
650.68
650.68
650.68
650.68
650.68
650.68
650.68
650.68
650.68
650.68
650.68
650.68
650.68
650.68
650.68
650.68
650.68
650.68
650.68
650.68
650.68
650.68
650.68
650.68
650.68
650.68
650.68
650.68
650.68
650.68
650.68
650.68
650.68
650.68
650.68
650.68
650.68
650.68
650.68
650.68
650.68
650.68
650.68
650.68
650.68
650.68
650.68
650.68
650.68
650.68
650.68
650.68
650.68
650.68
650.68
650.68
650.68
650.68
650.68
650.68
650.68
650.68
650.68
650.68
650.68
650.68
650.68
650.68
650.68
650.68
650.68
650.68
650.68
650.68
650.68
650.68
650.68
650.68
650.68
650.68
650.68
650.68
650.68
650.68
650.68
650.68
650.68
650.68
650.68
650.68
650.68
650.68
650.68
650.68
650.68
650.68
650.68
650.68
650.68
650.68
650.68
650.68
650.68
650.68
650.68
650.68
650.68
650.68
650.68
650.68
650.68
650.68
650.68
650.68
650.68
650.68
650.68
650.68
650.68
650.68
650.68
650.68
650.68
650.68
650.68
650.68
650.68
650.68
650.68
650.68
650.68
650.68
650.68
650.68
650.68
650.68
650.68
650.68
650.68
650.68
650.68
650.68
650.68
650.68
650.68
650.68
650.68
650.68
650.68
650.68
650.68
650.68
650.68
650.68
650.68
650.68
650.68
650.68
650.68
650.68
650.68
650.68
650.68
650.68
650.68
650.68
650.68
650.68
650.68
650.68
650.68
650.68
650.68
650.68
650.68
650.68
650.68
650.68
650.68
650.68
650.68
650.68
650.68
650.68
650.68
650.68
650.68
650.68
650.68
650.68
650.68
650.68
650.68
650.68
650.68
650.68
650.68
650.68
650.68
650.68
650.68
650.68
650.68
650.68
650.68
650.68
650.68
650.68
650.68
650.68
650.68
650.68
650.68
650.68
650.68
650.68
650.68
650.68
650.68
650.68
650.68
650.68
650.68
650.68
650.68
650.68
650.68
650.68
650.68
650.68
650.68
650.68
650.68
650.68
650.68
650.68
650.68
650.68
650.68
650.68
650.68
650.68
650.68
650.68
650.68
650.68
650.68
650.68
650.68
650.68
650.68
650.68
650.68
650.68
650.68
650.68
650.68
650.68
650.68
650.68
650.68
650.68
650.68
650.68
650.68
650.68
650.68
650.68
650.68
650.68
650.68
650.68
650.68
650.68
650.68
650.68
650.68
650.68
650.68
650.68
650.68
650.68
650.68
650.68
650.68
650.68
650.68
650.68
650.68
650.68
650.68
650.68
650.68
650.68
650.68
650.68
650.68
650.68
650.68
650.68
650.68
650.68
650.68
650.68
650.68
650.68
650.68
650.68
650.68
650.68
650.68
650.68
650.68
650.68
650.68
650.68
650.68
650.68
650.68
650.68
650.68
650.68
650.68
650.68
650.68
650.68
650.68
650.68
650.68
650.68
650.68
650.68
650.68
650.68
650.68
650.68
650.68
650.68
650.68
650.68
650.68
650.68
650.68
650.68
650.68
650.68
650.68
650.68
650.68
650.68
650.68
650.68
650.68
650.68
650.68
650.68
650.68
650.68
650.68
650.68
650.68
650.68
650.68
650.68
650.68
650.68
650.68
650.68
650.68
650.68
650.68
650.68
650.68
650.68
650.68
650.68
650.68
650.68
650.68
650.68
650.68
650.68
650.68
650.68
650.68
650.68
650.68
650.68
650.68
650.68
650.68
650.68
650.68
650.68
650.68
650.68
650.68
650.68
650.68
650.68
650.68
650.68
650.68
650.68
650.68
650.68
650.68
650.68
650.68
650.68
650.68
650.68
650.68
650.68
650.68
650.68
650.68
650.68
650.68
650.68
650.68
650.68
650.68
650.68
650.68
650.68
650.68
650.68
650.68
650.68
650.68
650.68
650.68
650.68
650.68
650.68
650.68
650.68
650.68
650.68
650.68
650.68
650.68
650.68
650.68
650.68
650.68
650.68
650.68
650.68
650.68
650.68
650.68
650.68
650.68
650.68
650.68
650.68
650.68
650.68
650.68
650.68
650.68
650.68
650.68
650.68
650.68
650.68
650.68
650.68
650.68
650.68
650.68
650.68
650.68
650.68
650.68
650.68
650.68
650.68
650.68
650.68
650.68
650.68
650.68
650.68
650.68
650.68
650.68
650.68
650.68
650.68
650.68
650.68
650.68
650.68
650.68
650.68
650.68
650.68
650.68
650.68
650.68
650.68
650.68
650.68
650.68
650.68
650.68
650.68
650.68
650.68
650.68
650.68
650.68
650.68
650.68
650.68
650.68
650.68
650.68
650.68
650.68
650.68
650.68
650.68
650.68
650.68
650.68
650.68
650.68
650.68
650.68
650.68
650.68
650.68
650.68
650.68
650.68
650.68
650.68
650.68
650.68
650.68
650.68
650.68
650.68
650.68
650.68
650.68
650.68
650.68
650.68
650.68
650.68
650.68
650.68
650.68
650.68
650.68
650.68
650.68
650.68
650.68
650.68
650.68
650.68
650.68
650.68
650.68
650.68
650.68
650.68
650.68
650.68
650.68
650.68
650.68
650.68
650.68
650.68
650.68
650.68
650.68
650.68
650.68
650.68
650.68
650.68
650.68
650.68
650.68
650.68
650.68
650.68
650.68
650.68
650.68
650.68
650.68
650.68
650.68
650.68
650.68
650.68
650.68
650.68
650.68
650.68
650.68
650.68
650.68
650.68
650.68
650.68
650.68
650.68
650.68
650.68
650.68
650.68
650.68
650.68
650.68
650.68
650.68
650.68
650.68
650.68
650.68
650.68
650.68
650.68
650.68
650.68
650.68
650.68
650.68
650.68
650.68
650.68
650.68
650.68
650.68
650.68
650.68
650.68
650.68
650.68
650.68
650.68
650.68
650.68
650.68
650.68
650.68
650.68
650.68
650.68
650.68
650.68
650.68
650.68
650.68
650.68
650.68
650.68
650.68
650.68
650.68
650.68
650.68
650.68
650.68
650.68
650.68
650.68
650.68
650.68
650.68
650.68
650.68
650.68
650.68
650.68
650.68
650.68
650.68
650.68
650.68
650.68
650.68
650.68
650.68
650.68
650.68
650.68
650.68
650.68
650.68
650.68
650.68
650.68
650.68
650.68
650.68
650.68
650.68
650.68
650.68
650.68
650.68
650.68
650.68
650.68
650.68
650.68
650.68
650.68
650.68
650.68
650.68
650.68
650.68
650.68
650.68
650.68
650.68
650.68
650.68
650.68
650.68
650.68
650.68
650.68
650.68
650.68
650.68
650.68
650.68
650.68
650.68
650.68
650.68
650.68
650.68
650.68
650.68
650.68
650.68
650.68
650.68
650.68
650.68
650.68
650.68
650.68
650.68
650.68
650.68
650.68
650.68
650.68
650.68
650.68
650.68
650.68
650.68
650.68
650.68
650.68
650.68
650.68
650.68
650.68
650.68
650.68
650.68
650.68
650.68
650.68
650.68
650.68
650.68
650.68
650.68
650.68
650.68
650.68
650.68
650.68
650.68
650.68
650.68
650.68
650.68
650.68
650.68
650.68
650.68
650.68
650.68
650.68
650.68
650.68
650.68
650.68
650.68
650.68
650.68
650.68
650.68
650.68
650.68
650.68
650.68
650.68
650.68
650.68
650.68
650.68
650.68
650.68
650.68
650.68
650.68
650.68
650.68
650.68
650.68
650.68
650.68
650.68
650.68
650.68
650.68
650.68
650.68
650.68
650.68
650.68
650.68
650.68
650.68
650.68
650.68
650.68
650.68
650.68
650.68
650.68
650.68
650.68
650.68
650.68
650.68
650.68
650.68
650.68
650.68
650.68
650.68
650.68
650.68
650.68
650.68
650.68
650.68
650.68
650.68
650.68
650.68
650.68
650.68
650.68
650.68
650.68
650.68
650.68
650.68
650.68
650.68
650.68
650.68
650.68
650.68
650.68
650.68
650.68
650.68
650.68
650.68
650.68
650.68
650.68
650.68
650.68
650.68
650.68
650.68
650.68
650.68
650.68
650.68
650.68
650.68
650.68
650.68
650.68
650.68
650.68
650.68
650.68
650.68
650.68
650.68
650.68
650.68
650.68
650.68
650.68
650.68
650.68
650.68
650.68
650.68
650.68
650.68
650.68
650.68
650.68
650.68
650.68
650.68
650.68
650.68
650.68
650.68
650.68
650.68
650.68
650.68
650.68
650.68
650.68
650.68
650.68
650.68
650.68
650.68
650.68
650.68
650.68
650.68
650.68
650.68
650.68
650.68
650.68
650.68
650.68
650.68
650.68
650.68
650.68
650.68
650.68
650.68
650.68
650.68
650.68
650.68
650.68
650.68
650.68
650.68
650.68
650.68
650.68
650.68
650.68
650.68
650.68
650.68
650.68
650.68
650.68
650.68
650.68
650.68
650.68
650.68
650.68
650.68
650.68
650.68
650.68
650.68
650.68
650.68
650.68
650.68
650.68
650.68
650.68
650.68
650.68
650.68
650.68
650.68
650.68
650.68
650.68
650.68
650.68
650.68
650.68
650.68
650.68
650.68
650.68
650.68
650.68
650.68
650.68
650.68
650.68
650.68
650.68
650.68
650.68
650.68
650.68
650.68
650.68
650.68
650.68
650.68
650.68
650.68
650.68
650.68
650.68
650.68
650.68
650.68
650.68
650.68
650.68
650.68
650.68
650.68
650.68
650.68
650.68
650.68
650.68
650.68
650.68
650.68
650.68
650.68
650.68
650.68
650.68
650.68
650.68
650.68
650.68
650.68
650.68
650.68
650.68
650.68
650.68
650.68
650.68
650.68
650.68
650.68
650.68
650.68
650.68
650.68
650.68
650.68
650.68
650.68
650.68
650.68
650.68
650.68
650.68
650.68
650.68
650.68
650.68
650.68
650.68
650.68
650.68
650.68
650.68
650.68
650.68
650.68
650.68
650.68
650.68
650.68
650.68
650.68
650.68
650.68
650.68
650.68
650.68
650.68
650.68
650.68
650.68
650.68
650.68
650.68
650.68
650.68
650.68
650.68
650.68
650.68
650.68
650.68
650.68
650.68
650.68
650.68
650.68
650.68
650.68
650.68
650.68
650.68
650.68
650.68
650.68
650.68
650.68
650.68
650.68
650.68
650.68
650.68
650.68
650.68
650.68
650.68
650.68
650.68
650.68
650.68
650.68
650.68
650.68
650.68
650.68
650.68
650.68
650.68
650.68
650.68
650.68
650.68
650.68
650.68
650.68
650.68
650.68
650.68
650.68
650.68
650.68
650.68
650.68
650.68
650.68
650.68
650.68
650.68
650.68
650.68
650.68
650.68
650.68
650.68
650.68
650.68
650.68
650.68
650.68
650.68
650.68
650.68
650.68
650.68
650.68
650.68
650.68
650.68
650.68
650.68
650.68
650.68
650.68
650.68
650.68
650.68
650.68
650.68
650.68
650.68
650.68
650.68
650.68
650.68
650.68
650.68
650.68
650.68
650.68
650.68
650.68
650.68
650.68
650.68
650.68
650.68
650.68
650.68
650.68
650.68
650.68
650.68
650.68
650.68
650.68
650.68
650.68
650.68
650.68
650.68
650.68
650.68
650.68
650.68
650.68
650.68
650.68
650.68
650.68
650.68
650.68
650.68
650.68
650.68
650.68
650.68
650.68
650.68
650.68
650.68
650.68
650.68
650.68
650.68
650.68
650.68
650.68
650.68
650.68
650.68
650.68
650.68
650.68
650.68
650.68
650.68
650.68
650.68
650.68
650.68
650.68
650.68
650.68
650.68
650.68
650.68
650.68
650.68
650.68
650.68
650.68
650.68
650.68
650.68
650.68
650.68
650.68
650.68
650.68
650.68
650.68
650.68
650.68
650.68
650.68
650.68
650.68
650.68
650.68
650.68
650.68
650.68
650.68
650.68
650.68
650.68
650.68
650.68
650.68
650.68
650.68
650.68
650.68
650.68
650.68
650.68
650.68
650.68
650.68
650.68
650.68
650.68
650.68
650.68
650.68
650.68
650.68
650.68
650.68
650.68
650.68
650.68
650.68
650.68
650.68
650.68
650.68
650.68
650.68
650.68
650.68
650.68
650.68
650.68
650.68
650.68
650.68
650.68
650.68
650.68
650.68
650.68
650.68
650.68
650.68
650.68
650.68
650.68
650.68
650.68
650.68
650.68
650.68
650.68
650.68
650.68
650.68
650.68
650.68
650.68
650.68
650.68
650.68
650.68
650.68
650.68
650.68
650.68
650.68
650.68
650.68
650.68
650.68
650.68
650.68
650.68
650.68
650.68
650.68
650.68
650.68
650.68
650.68
650.68
650.68
650.68
650.68
650.68
650.68
650.68
650.68
650.68
650.68
650.68
650.68
650.68
650.68
650.68
650.68
650.68
650.68
650.68
650.68
650.68
650.68
650.68
650.68
650.68
650.68
650.68
650.68
650.68
650.68
650.68
650.68
650.68
650.68
650.68
650.68
650.68
650.68
650.68
650.68
650.68
650.68
650.68
650.68
650.68
650.68
650.68
650.68
650.68
650.68
650.68
650.68
650.68
650.68
650.68
650.68
650.68
650.68
650.68
650.68
650.68
650.68
650.68
650.68
650.68
650.68
650.68
650.68
650.68
650.68
650.68
650.68
650.68
650.68
650.68
650.68
650.68
650.68
650.68
650.68
650.68
650.68
650.68
650.68
650.68
650.68
650.68
650.68
650.68
650.68
650.68
650.68
650.68
650.68
650.68
650.68
650.68
650.68
650.68
650.68
650.68
650.68
650.68
650.68
650.68
650.68
650.68
650.68
650.68
650.68
650.68
650.68
650.68
650.68
650.68
650.68
650.68
650.68
650.68
650.68
650.68
650.68
650.68
650.68
650.68
650.68
650.68
650.68
650.68
650.68
650.68
650.68
650.68
650.68
650.68
650.68
650.68
650.68
650.68
650.68
650.68
650.68
650.68
650.68
650.68
650.68
650.68
650.68
650.68
650.68
650.68
650.68
650.68
650.68
650.68
650.68
650.68
650.68
650.68
650.68
650.68
650.68
650.68
650.68
650.68
650.68
650.68
650.68
650.68
650.68
650.68
650.68
650.68
650.68
650.68
650.68
650.68
650.68
650.68
650.68
650.68
650.68
650.68
650.68
650.68
650.68
650.68
650.68
650.68
650.68
650.68
650.68
650.68
650.68
650.68
650.68
650.68
650.68
650.68
650.68
650.68
650.68
650.68
650.68
650.68
650.68
650.68
650.68
650.68
650.68
650.68
650.68
650.68
650.68
650.68
650.68
650.68
650.68
650.68
650.68
650.68
650.68
650.68
650.68
650.68
650.68
650.68
650.68
650.68
650.68
650.68
650.68
650.68
650.68
650.68
650.68
650.68
650.68
650.68
650.68
650.68
650.68
650.68
650.68
650.68
650.68
650.68
650.68
650.68
650.68
650.68
650.68
650.68
650.68
650.68
650.68
650.68
650.68
650.68
650.68
650.68
650.68
650.68
650.68
650.68
650.68
650.68
650.68
650.68
650.68
650.68
650.68
650.68
650.68
650.68
650.68
650.68
650.68
650.68
650.68
650.68
650.68
650.68
650.68
650.68
650.68
650.68
650.68
650.68
650.68
650.68
650.68
650.68
650.68
650.68
650.68
650.68
650.68
650.68
650.68
650.68
650.68
650.68
650.68
650.68
650.68
650.68
650.68
650.68
650.68
650.68
650.68
650.68
650.68
650.68
650.68
650.68
650.68
650.68
650.68
650.68
650.68
650.68
650.68
650.68
650.68
650.68
650.68
650.68
650.68
650.68
650.68
650.68
650.68
650.68
650.68
650.68
650.68
650.68
650.68
650.68
650.68
650.68
650.68
650.68
650.68
650.68
650.68
650.68
650.68
650.68
650.68
650.68
650.68
650.68
650.68
650.68
650.68
650.68
650.68
650.68
650.68
650.68
650.68
650.68
650.68
650.68
650.68
650.68
650.68
650.68
650.68
650.68
650.68
650.68
650.68
650.68
650.68
650.68
650.68
650.68
650.68
650.68
650.68
650.68
650.68
650.68
650.68
650.68
650.68
650.68
650.68
650.68
650.68
650.68
650.68
650.68
650.68
650.68
650.68
650.68
650.68
650.68
650.68
650.68
650.68
650.68
650.68
650.68
650.68
650.68
650.68
650.68
650.68
650.68
650.68
650.68
650.68
650.68
650.68
650.68
650.68
650.68
650.68
650.68
650.68
650.68
650.68
650.68
650.68
650.68
650.68
650.68
650.68
650.68
650.68
650.68
650.68
650.68
650.68
650.68
650.68
650.68
650.68
650.68
650.68
650.68
650.68
650.68
650.68
650.68
650.68
650.68
650.68
650.68
650.68
650.68
650.68
650.68
650.68
650.68
650.68
650.68
650.68
650.68
650.68
650.68
650.68
650.68
650.68
650.68
650.68
650.68
650.68
650.68
650.68
650.68
650.68
650.68
650.68
650.68
650.68
650.68
650.68
650.68
650.68
650.68
650.68
650.68
650.68
650.68
650.68
650.68
650.68
650.68
650.68
650.68
650.68
650.68
650.68
650.68
650.68
650.68
650.68
650.68
650.68
650.68
650.68
650.68
650.68
650.68
650.68
650.68
650.68
650.68
650.68
650.68
650.68
650.68
650.68
650.68
650.68
650.68
650.68
650.68
650.68
650.68
650.68
650.68
650.68
650.68
650.68
650.68
650.68
650.68
650.68
650.68
650.68
650.68
650.68
650.68
650.68
650.68
650.68
650.68
650.68
650.68
650.68
650.68
650.68
650.68
650.68
650.68
650.68
650.68
650.68
650.68
650.68
650.68
650.68
650.68
650.68
650.68
650.68
650.68
650.68
650.68
650.68
650.68
650.68
650.68
650.68
650.68
650.68
650.68
650.68
650.68
650.68
650.68
650.68
650.68
650.68
650.68
650.68
650.68
650.68
650.68
650.68
650.68
650.68
650.68
650.68
650.68
650.68
650.68
650.68
650.68
650.68
650.68
650.68
650.68
650.68
650.68
650.68
650.68
650.68
650.68
650.68
650.68
650.68
650.68
650.68
650.68
650.68
650.68
650.68
650.68
650.68
650.68
650.68
650.68
650.68
650.68
650.68
650.68
650.68
650.68
650.68
650.68
650.68
650.68
650.68
650.68
650.68
650.68
650.68
650.68
650.68
650.68
650.68
650.68
650.68
650.68
650.68
650.68
650.68
650.68
650.68
650.68
650.68
650.68
650.68
650.68
650.68
650.68
650.68
650.68
650.68
650.68
650.68
650.68
650.68
650.68
650.68
650.68
650.68
650.68
650.68
650.68
650.68
650.68
650.68
650.68
650.68
650.68
650.68
650.68
650.68
650.68
650.68
650.68
650.68
650.68
650.68
650.68
650.68
650.68
650.68
650.68
650.68
650.68
650.68
650.68
650.68
650.68
650.68
650.68
650.68
650.68
650.68
650.68
650.68
650.68
650.68
650.68
650.68
650.68
650.68
650.68
650.68
650.68
650.68
650.68
650.68
650.68
650.68
650.68
650.68
650.68
650.68
650.68
650.68
650.68
650.68
650.68
650.68
650.68
650.68
650.68
650.68
650.68
650.68
650.68
650.68
650.68
650.68
650.68
650.68
650.68
650.68
650.68
650.68
650.68
650.68
650.68
650.68
650.68
650.68
650.68
650.68
650.68
650.68
650.68
650.68
650.68
650.68
650.68
650.68
650.68
650.68
650.68
650.68
650.68
650.68
650.68
650.68
650.68
650.68
650.68
650.68
650.68
650.68
650.68
650.68
650.68
650.68
650.68
650.68
650.68
650.68
650.68
650.68
650.68
650.68
650.68
650.68
650.68
650.68
650.68
650.68
650.68
650.68
650.68
650.68
650.68
650.68
650.68
650.68
650.68
650.68
650.68
650.68
650.68
650.68
650.68
650.68
650.68
650.68
650.68
650.68
650.68
650.68
650.68
650.68
650.68
650.68
650.68
650.68
650.68
650.68
650.68
650.68
650.68
650.68
650.68
650.68
650.68
650.68
650.68
650.68
650.68
650.68
650.68
650.68
650.68
650.68
650.68
650.68
650.68
650.68
650.68
650.68
650.68
650.68
650.68
650.68
650.68
650.68
650.68
650.68
650.68
650.68
650.68
650.68
650.68
650.68
650.68
650.68
650.68
650.68
650.68
650.68
650.68
650.68
650.68
650.68
650.68
650.68
650.68
650.68
650.68
650.68
650.68
650.68
650.68
650.68
650.68
650.68
650.68
650.68
650.68
650.68
650.68
650.68
650.68
650.68
650.68
650.68
650.68
650.68
650.68
650.68
650.68
650.68
650.68
650.68
650.68
650.68
650.68
650.68
650.68
650.68
650.68
650.68
650.68
650.68
650.68
650.68
650.68
650.68
650.68
650.68
650.68
650.68
650.68
650.68
650.68
650.68
650.68
650.68
650.68
650.68
650.68
650.68
650.68
650.68
650.68
650.68
650.68
650.68
650.68
650.68
650.68
650.68
650.68
650.68
650.68
650.68
650.68
650.68
650.68
650.68
650.68
650.68
650.68
650.68
650.68
650.68
650.68
650.68
650.68
650.68
650.68
650.68
650.68
650.68
650.68
650.68
650.68
650.68
650.68
650.68
650.68
650.68
650.68
650.68
650.68
650.68
650.68
650.68
650.68
650.68
650.68
650.68
650.68
650.68
650.68
650.68
650.68
650.68
650.68
650.68
650.68
650.68
650.68
650.68
650.68
650.68
650.68
650.68
650.68
650.68
650.68
650.68
650.68
650.68
650.68
650.68
650.68
650.68
650.68
650.68
650.68
650.68
650.68
650.68
650.68
650.68
650.68
650.68
650.68
650.68
650.68
650.68
650.68
650.68
650.68
650.68
650.68
650.68
650.68
650.68
650.68
650.68
650.68
650.68
650.68
650.68
650.68
650.68
650.68
650.68
650.68
650.68
650.68
650.68
650.68
650.68
650.68
650.68
650.68
650.68
650.68
650.68
650.68
650.68
650.68
650.68
650.68
650.68
650.68
650.68
650.68
650.68
650.68
650.68
650.68
650.68
650.68
650.68
650.68
650.68
650.68
650.68
650.68
650.68
650.68
650.68
650.68
650.68
650.68
650.68
650.68
650.68
650.68
650.68
650.68
650.68
650.68
650.68
650.68
650.68
650.68
650.68
650.68
650.68
650.68
650.68
650.68
650.68
650.68
650.68
650.68
650.68
650.68
650.68
650.68
650.68
650.68
650.68
650.68
650.68
650.68
650.68
650.68
650.68
650.68
650.68
650.68
650.68
650.68
650.68
650.68
650.68
650.68
650.68
650.68
650.68
650.68
650.68
650.68
650.68
650.68
650.68
650.68
650.68
650.68
650.68
650.68
650.68
650.68
650.68
650.68
650.68
650.68
650.68
650.68
650.68
650.68
650.68
650.68
650.68
650.68
650.68
650.68
650.68
650.68
650.68
650.68
650.68
650.68
650.68
650.68
650.68
650.68
650.68
650.68
650.68
650.68
650.68
650.68
650.68
650.68
650.68
650.68
650.68
650.68
650.68
650.68
650.68
650.68
650.68
650.68
650.68
650.68
650.68
650.68
650.68
650.68
650.68
650.68
650.68
650.68
650.68
650.68
650.68
650.68
650.68
650.68
650.68
650.68
650.68
650.68
650.68
650.68
650.68
650.68
650.68
650.68
650.68
650.68
650.68
650.68
650.68
650.68
650.68
650.68
650.68
650.68
650.68
650.68
650.68
650.68
650.68
650.68
650.68
650.68
650.68
650.68
650.68
650.68
650.68
650.68
650.68
650.68
650.68
650.68
650.68
650.68
650.68
650.68
650.68
650.68
650.68
650.68
650.68
650.68
650.68
650.68
650.68
650.68
650.68
650.68
650.68
650.68
650.68
650.68
650.68
650.68
650.68
650.68
650.68
650.68
650.68
650.68
650.68
650.68
650.68
650.68
650.68
650.68
650.68
650.68
650.68
650.68
650.68
650.68
650.68
650.68
650.68
650.68
650.68
650.68
650.68
650.68
650.68
650.68
650.68
650.68
650.68
650.68
650.68
650.68
650.68
650.68
650.68
650.68
650.68
650.68
650.68
650.68
650.68
650.68
650.68
650.68
650.68
650.68
650.68
650.68
650.68
650.68
650.68
650.68
650.68
650.68
650.68
650.68
650.68
650.68
650.68
650.68
650.68
650.68
650.68
650.68
650.68
650.68
650.68
650.68
650.68
650.68
650.68
650.68
650.68
650.68
650.68
650.68
650.68
650.68
650.68
650.68
650.68
650.68
650.68
650.68
650.68
650.68
650.68
650.68
650.68
650.68
650.68
650.68
650.68
650.68
650.68
650.68
650.68
650.68
650.68
650.68
650.68
650.68
650.68
650.68
650.68
650.68
650.68
650.68
650.68
650.68
650.68
650.68
650.68
650.68
650.68
650.68
650.68
650.68
650.68
650.68
650.68
650.68
650.68
650.68
650.68
650.68
650.68
650.68
650.68
650.68
650.68
650.68
650.68
650.68
650.68
650.68
650.68
650.68
650.68
650.68
650.68
650.68
650.68
650.68
650.68
650.68
650.68
650.68
650.68
650.68
650.68
650.68
650.68
650.68
650.68
650.68
650.68
650.68
650.68
650.68
650.68
650.68
650.68
650.68
650.68
650.68
650.68
650.68
650.68
650.68
650.68
650.68
650.68
650.68
650.68
650.68
650.68
650.68
650.68
650.68
650.68
650.68
650.68
650.68
650.68
650.68
650.68
650.68
650.68
650.68
650.68
650.68
650.68
650.68
650.68
650.68
650.68
650.68
650.68
650.68
650.68
650.68
650.68
650.68
650.68
650.68
650.68
650.68
650.68
650.68
650.68
650.68
650.68
650.68
650.68
650.68
650.68
650.68
650.68
650.68
650.68
650.68
650.68
650.68
650.68
650.68
650.68
650.68
650.68
650.68
650.68
650.68
650.68
650.68
650.68
650.68
650.68
650.68
650.68
650.68
650.68
650.68
650.68
650.68
650.68
650.68
650.68
650.68
650.68
650.68
650.68
650.68
650.68
650.68
650.68
650.68
650.68
650.68
650.68
650.68
650.68
650.68
650.68
650.68
650.68
650.68
650.68
650.68
650.68
650.68
650.68
650.68
650.68
650.68
650.68
650.68
650.68
650.68
650.68
650.68
650.68
650.68
650.68
650.68
650.68
650.68
650.68
650.68
650.68
650.68
650.68
650.68
650.68
650.68
650.68
650.68
650.68
650.68
650.68
650.68
650.68
650.68
650.68
650.68
650.68
650.68
650.68
650.68
650.68
650.68
650.68
650.68
650.68
650.68
650.68
650.68
650.68
650.68
650.68
650.68
650.68
650.68
650.68
650.68
650.68
650.68
650.68
650.68
650.68
650.68
650.68
650.68
650.68
650.68
650.68
650.68
650.68
650.68
650.68
650.68
650.68
650.68
650.68
650.68
650.68
650.68
650.68
650.68
650.68
650.68
650.68
650.68
650.68
650.68
650.68
650.68
650.68
650.68
650.68
650.68
650.68
650.68
650.68
650.68
650.68
650.68
650.68
650.68
650.68
650.68
650.68
650.68
650.68
650.68
650.68
650.68
650.68
650.68
650.68
650.68
650.68
650.68
650.68
650.68
650.68
650.68
650.68
650.68
650.68
650.68
650.68
650.68
650.68
650.68
650.68
650.68
650.68
650.68
650.68
650.68
650.68
650.68
650.68
650.68
650.68
650.68
650.68
650.68
650.68
650.68
650.68
650.68
650.68
650.68
650.68
650.68
650.68
650.68
650.68
650.68
650.68
650.68
650.68
650.68
650.68
650.68
650.68
650.68
650.68
650.68
650.68
650.68
650.68
650.68
650.68
650.68
650.68
650.68
650.68
650.68
650.68
650.68
650.68
650.68
650.68
650.68
650.68
650.68
650.68
650.68
650.68
650.68
650.68
650.68
650.68
650.68
650.68
650.68
650.68
650.68
650.68
650.68
650.68
650.68
650.68
650.68
650.68
650.68
650.68
650.68
650.68
650.68
650.68
650.68
650.68
650.68
650.68
650.68
650.68
650.68
650.68
650.68
650.68
650.68
650.68
650.68
650.68
650.68
650.68
650.68
650.68
650.68
650.68
650.68
650.68
650.68
650.68
650.68
650.68
650.68
650.68
650.68
650.68
650.68
650.68
650.68
650.68
650.68
650.68
650.68
650.68
650.68
650.68
650.68
650.68
650.68
650.68
650.68
650.68
650.68
650.68
650.68
650.68
650.68
650.68
650.68
650.68
650.68
650.68
650.68
650.68
650.68
650.68
650.68
650.68
650.68
650.68
650.68
650.68
650.68
650.68
650.68
650.68
650.68
650.68
650.68
650.68
650.68
650.68
650.68
650.68
650.68
650.68
650.68
650.68
650.68
650.68
650.68
650.68
650.68
650.68
650.68
650.68
650.68
650.68
650.68
650.68
650.68
650.68
650.68
650.68
650.68
650.68
650.68
650.68
650.68
650.68
650.68
650.68
650.68
650.68
650.68
650.68
650.68
650.68
650.68
650.68
650.68
650.68
650.68
650.68
650.68
650.68
650.68
650.68
650.68
650.68
650.68
650.68
650.68
650.68
650.68
650.68
650.68
650.68
650.68
650.68
650.68
650.68
650.68
650.68
650.68
650.68
650.68
650.68
650.68
650.68
650.68
650.68
650.68
650.68
650.68
650.68
650.68
650.68
650.68
650.68
650.68
650.68
650.68
650.68
650.68
650.68
650.68
650.68
650.68
650.68
650.68
650.68
650.68
650.68
650.68
650.68
650.68
650.68
650.68
650.68
650.68
650.68
650.68
650.68
650.68
650.68
650.68
650.68
650.68
650.68
650.68
650.68
650.68
650.68
650.68
650.68
650.68
650.68
650.68
650.68
650.68
650.68
650.68
650.68
650.68
650.68
650.68
650.68
650.68
650.68
650.68
650.68
650.68
650.68
650.68
650.68
650.68
650.68
650.68
650.68
650.68
650.68
650.68
650.68
650.68
650.68
650.68
650.68
650.68
650.68
650.68
650.68
650.68
650.68
650.68
650.68
650.68
650.68
650.68
650.68
650.68
650.68
650.68
650.68
650.68
650.68
650.68
650.68
650.68
650.68
650.68
650.68
650.68
650.68
650.68
650.68
650.68
650.68
650.68
650.68
650.68
650.68
650.68
650.68
650.68
650.68
650.68
650.68
650.68
650.68
650.68
650.68
650.68
650.68
650.68
650.68
650.68
650.68
650.68
650.68
650.68
650.68
650.68
650.68
650.68
650.68
650.68
650.68
650.68
650.68
650.68
650.68
650.68
650.68
650.68
650.68
650.68
650.68
650.68
650.68
650.68
650.68
650.68
650.68
650.68
650.68
650.68
650.68
650.68
650.68
650.68
650.68
650.68
650.68
650.68
650.68
650.68
650.68
650.68
650.68
650.68
650.68
650.68
650.68
650.68
650.68
650.68
650.68
650.68
650.68
650.68
650.68
650.68
650.68
650.68
650.68
650.68
650.68
650.68
650.68
650.68
650.68
650.68
650.68
650.68
650.68
650.68
650.68
650.68
650.68
650.68
650.68
650.68
650.68
650.68
650.68
650.68
650.68
650.68
650.68
650.68
650.68
650.68
650.68
650.68
650.68
650.68
650.68
650.68
650.68
650.68
650.68
650.68
650.68
650.68
650.68
650.68
650.68
650.68
650.68
650.68
650.68
650.68
650.68
650.68
650.68
650.68
650.68
650.68
650.68
650.68
650.68
650.68
650.68
650.68
650.68
650.68
650.68
650.68
650.68
650.68
650.68
650.68
650.68
650.68
650.68
650.68
650.68
650.68
650.68
650.68
650.68
650.68
650.68
650.68
650.68
650.68
650.68
650.68
650.68
650.68
650.68
650.68
650.68
650.68
650.68
650.68
650.68
650.68
650.68
650.68
650.68
650.68
650.68
650.68
650.68
650.68
650.68
650.68
650.68
650.68
650.68
650.68
650.68
650.68
650.68
650.68
650.68
650.68
650.68
650.68
650.68
650.68
650.68
650.68
650.68
650.68
650.68
650.68
650.68
650.68
650.68
650.68
650.68
650.68
650.68
650.68
650.68
650.68
650.68
650.68
650.68
650.68
650.68
650.68
650.68
650.68
650.68
650.68
650.68
650.68
650.68
650.68
650.68
650.68
650.68
650.68
650.68
650.68
650.68
650.68
650.68
650.68
650.68
650.68
650.68
650.68
650.68
650.68
650.68
650.68
650.68
650.68
650.68
650.68
650.68
650.68
650.68
650.68
650.68
650.68
650.68
650.68
650.68
650.68
650.68
650.68
650.68
650.68
650.68
650.68
650.68
650.68
650.68
650.68
650.68
650.68
650.68
650.68
650.68
650.68
650.68
650.68
650.68
650.68
650.68
650.68
650.68
650.68
650.68
650.68
650.68
650.68
650.68
650.68
650.68
650.68
650.68
650.68
650.68
650.68
650.68
650.68
650.68
650.68
650.68
650.68
650.68
650.68
650.68
650.68
650.68
650.68
650.68
650.68
650.68
650.68
650.68
650.68
650.68
650.68
650.68
650.68
650.68
650.68
650.68
650.68
650.68
650.68
650.68
650.68
650.68
650.68
650.68
650.68
650.68
650.68
650.68
650.68
650.68
650.68
650.68
650.68
650.68
650.68
650.68
650.68
650.68
650.68
650.68
650.68
650.68
650.68
650.68
650.68
650.68
650.68
650.68
650.68
650.68
650.68
650.68
650.68
650.68
650.68
650.68
650.68
650.68
650.68
650.68
650.68
650.68
650.68
650.68
650.68
650.68
650.68
650.68
650.68
650.68
650.68
650.68
650.68
650.68
650.68
650.68
650.68
650.68
650.68
650.68
650.68
650.68
650.68
650.68
650.68
650.68
650.68
650.68
650.68
650.68
650.68
650.68
650.68
650.68
650.68
650.68
650.68
650.68
650.68
650.68
650.68
650.68
650.68
650.68
650.68
650.68
650.68
650.68
650.68
650.68
650.68
650.68
650.68
650.68
650.68
650.68
650.68
650.68
650.68
650.68
650.68
650.68
650.68
650.68
650.68
650.68
650.68
650.68
650.68
650.68
650.68
650.68
650.68
650.68
650.68
650.68
650.68
650.68
650.68
650.68
650.68
650.68
650.68
650.68
650.68
650.68
650.68
650.68
650.68
650.68
650.68
650.68
650.68
650.68
650.68
650.68
650.68
650.68
650.68
650.68
650.68
650.68
650.68
650.68
650.68
650.68
650.68
650.68
650.68
650.68
650.68
650.68
650.68
650.68
650.68
650.68
650.68
650.68
650.68
650.68
650.68
650.68
650.68
650.68
650.68
650.68
650.68
650.68
650.68
650.68
650.68
650.68
650.68
650.68
650.68
650.68
650.68
650.68
650.68
650.68
650.68
650.68
650.68
650.68
650.68
650.68
650.68
650.68
650.68
650.68
650.68
650.68
650.68
650.68
650.68
650.68
650.68
650.68
650.68
650.68
650.68
650.68
650.68
650.68
650.68
650.68
650.68
650.68
650.68
650.68
650.68
650.68
650.68
650.68
650.68
650.68
650.68
650.68
650.68
650.68
650.68
650.68
650.68
650.68
650.68
650.68
650.68
650.68
650.68
650.68
650.68
650.68
650.68
650.68
650.68
650.68
650.68
650.68
650.68
650.68
650.68
650.68
650.68
650.68
650.68
650.68
650.68
650.68
650.68
650.68
650.68
650.68
650.68
650.68
650.68
650.68
650.68
650.68
650.68
650.68
650.68
650.68
650.68
650.68
650.68
650.68
650.68
650.68
650.68
650.68
650.68
650.68
650.68
650.68
650.68
650.68
650.68
650.68
650.68
650.68
650.68
650.68
650.68
650.68
650.68
650.68
650.68
650.68
650.68
650.68
650.68
650.68
650.68
650.68
650.68
650.68
650.68
650.68
650.68
650.68
650.68
650.68
650.68
650.68
650.68
650.68
650.68
650.68
650.68
650.68
650.68
650.68
650.68
650.68
650.68
650.68
650.68
650.68
650.68
650.68
650.68
650.68
650.68
650.68
650.68
650.68
650.68
650.68
650.68
650.68
650.68
650.68
650.68
650.68
650.68
650.68
650.68
650.68
650.68
650.68
650.68
650.68
650.68
650.68
650.68
650.68
650.68
650.68
650.68
650.68
650.68
650.68
650.68
650.68
650.68
650.68
650.68
650.68
650.68
650.68
650.68
650.68
650.68
650.68
650.68
650.68
650.68
650.68
650.68
650.68
650.68
650.68
650.68
650.68
650.68
650.68
650.68
650.68
650.68
650.68
650.68
650.68
650.68
650.68
650.68
650.68
650.68
650.68
650.68
650.68
650.68
650.68
650.68
650.68
650.68
650.68
650.68
650.68
650.68
650.68
650.68
650.68
650.68
650.68
650.68
650.68
650.68
650.68
650.68
650.68
650.68
650.68
650.68
650.68
650.68
650.68
650.68
650.68
650.68
650.68
650.68
650.68
650.68
650.68
650.68
650.68
650.68
650.68
650.68
650.68
650.68
650.68
650.68
650.68
650.68
650.68
650.68
650.68
650.68
650.68
650.68
650.68
650.68
650.68
650.68
650.68
650.68
650.68
650.68
650.68
650.68
650.68
650.68
650.68
650.68
650.68
650.68
650.68
650.68
650.68
650.68
650.68
650.68
650.68
650.68
650.68
650.68
650.68
650.68
650.68
650.68
650.68
650.68
650.68
650.68
650.68
650.68
650.68
650.68
650.68
650.68
650.68
650.68
650.68
650.68
650.68
650.68
650.68
650.68
650.68
650.68
650.68
650.68
650.68
650.68
650.68
650.68
650.68
650.68
650.68
650.68
650.68
650.68
650.68
650.68
650.68
650.68
650.68
650.68
650.68
650.68
650.68
650.68
650.68
650.68
650.68
650.68
650.68
650.68
650.68
650.68
650.68
650.68
650.68
650.68
650.68
650.68
650.68
650.68
650.68
650.68
650.68
650.68
650.68
650.68
650.68
650.68
650.68
650.68
650.68
650.68
650.68
650.68
650.68
650.68
650.68
650.68
650.68
650.68
650.68
650.68
650.68
650.68
650.68
650.68
650.68
650.68
650.68
650.68
650.68
650.68
650.68
650.68
650.68
650.68
650.68
650.68
650.68
650.68
650.68
650.68
650.68
650.68
650.68
650.68
650.68
650.68
650.68
650.68
650.68
650.68
650.68
650.68
650.68
650.68
650.68
650.68
650.68
650.68
650.68
650.68
650.68
650.68
650.68
650.68
650.68
650.68
650.68
650.68
650.68
650.68
650.68
650.68
650.68
650.68
650.68
650.68
650.68
650.68
650.68
650.68
650.68
650.68
650.68
650.68
650.68
650.68
650.68
650.68
650.68
650.68
650.68
650.68
650.68
650.68
650.68
650.68
650.68
650.68
650.68
650.68
650.68
650.68
650.68
650.68
650.68
650.68
650.68
650.68
650.68
650.68
650.68
650.68
650.68
650.68
650.68
650.68
650.68
650.68
650.68
650.68
650.68
650.68
650.68
650.68
650.68
650.68
650.68
650.68
650.68
650.68
650.68
650.68
650.68
650.68
650.68
650.68
650.68
650.68
650.68
650.68
650.68
650.68
650.68
650.68
650.68
650.68
650.68
650.68
650.68
650.68
650.68
650.68
650.68
650.68
650.68
650.68
650.68
650.68
650.68
650.68
650.68
650.68
650.68
650.68
650.68
650.68
650.68
650.68
650.68
650.68
650.68
650.68
650.68
650.68
650.68
650.68
650.68
650.68
650.68
650.68
650.68
650.68
650.68
650.68
650.68
650.68
650.68
650.68
650.68
650.68
650.68
650.68
650.68
650.68
650.68
650.68
650.68
650.68
650.68
650.68
650.68
650.68
650.68
650.68
650.68
650.68
650.68
650.68
650.68
650.68
650.68
650.68
650.68
650.68
650.68
650.68
650.68
650.68
650.68
650.68
650.68
650.68
650.68
650.68
650.68
650.68
650.68
650.68
650.68
650.68
650.68
650.68
650.68
650.68
650.68
650.68
650.68
650.68
650.68
650.68
650.68
650.68
650.68
650.68
650.68
650.68
650.68
650.68
650.68
650.68
650.68
650.68
650.68
650.68
650.68
650.68
650.68
650.68
650.68
650.68
650.68
650.68
650.68
650.68
650.68
650.68
650.68
650.68
650.68
650.68
650.68
650.68
650.68
650.68
650.68
650.68
650.68
650.68
650.68
650.68
650.68
650.68
650.68
650.68
650.68
650.68
650.68
650.68
650.68
650.68
650.68
650.68
650.68
650.68
650.68
650.68
650.68
650.68
650.68
650.68
650.68
650.68
650.68
650.68
650.68
650.68
650.68
650.68
650.68
650.68
650.68
650.68
650.68
650.68
650.68
650.68
650.68
650.68
650.68
650.68
650.68
650.68
650.68
650.68
650.68
650.68
650.68
650.68
650.68
650.68
650.68
