30.49316071
18.13106853
8.241394786
8.241394786
13.18623166
28.02074227
47.80008976
65.10701881
68.40357672
81.58980838
85.71050577
95.60017952
107.1381322
101.3691559
70.87599516
65.93115829
72.52427412
98.89673743
106.3139927
131.0381771
129.3898981
95.60017952
67.57943724
51.09664767
