27.36603561
16.27169685
7.39622584
7.39622584
11.83396134
25.14716785
42.89810987
58.43018413
61.38867447
73.22263581
76.92074873
85.79621974
96.15093591
90.97357783
63.60754222
59.16980672
65.08678739
88.75471007
95.41131333
117.5999908
116.1207457
85.79621974
60.64905188
45.85660021
