60.81021123
66.33841225
71.86661327
96.74351786
110.5640204
124.384523
138.2050255
138.2050255
140.969126
129.912724
127.1486235
121.6204225
118.8563219
116.0922214
113.3281209
113.3281209
116.0922214
116.0922214
121.6204225
127.1486235
135.440925
138.2050255
124.384523
96.74351786
