8.641905981
5.138430583
2.335650265
2.335650265
3.737040424
7.941210901
13.54677154
18.45163709
19.3858972
23.12293762
24.29076276
27.09354308
30.36345345
28.72849826
20.08659228
18.68520212
20.55372233
28.02780318
30.12988842
37.13683922
36.66970916
27.09354308
19.15233217
14.48103164
