10/11/2018 00:00;74;108
10/11/2018 01:00;152;86
10/11/2018 02:00;74;112
10/11/2018 03:00;130;90
10/11/2018 04:00;88;140
10/11/2018 05:00;120;90
10/11/2018 06:00;88;146
10/11/2018 07:00;114;90
10/11/2018 08:00;88;146
10/11/2018 09:00;128;172
10/11/2018 10:00;106;310
10/11/2018 11:00;172;156
10/11/2018 12:00;154;228
10/11/2018 13:00;96;116
10/11/2018 14:00;158;80
10/11/2018 15:00;76;128
10/11/2018 16:00;124;84
10/11/2018 17:00;158;276
10/11/2018 18:00;1182;1250
10/11/2018 19:00;1316;882
10/11/2018 20:00;246;244
10/11/2018 21:00;318;210
10/11/2018 22:00;200;144
10/11/2018 23:00;64;30
11/11/2018 00:00;66;88
11/11/2018 01:00;42;42
11/11/2018 02:00;106;26
11/11/2018 03:00;42;80
11/11/2018 04:00;88;42
11/11/2018 05:00;44;110
11/11/2018 06:00;52;44
11/11/2018 07:00;54;108
11/11/2018 08:00;80;106
11/11/2018 09:00;90;80
11/11/2018 10:00;52;74
11/11/2018 11:00;156;90
11/11/2018 12:00;76;166
11/11/2018 13:00;158;74
11/11/2018 14:00;74;140
11/11/2018 15:00;362;256
11/11/2018 16:00;216;212
11/11/2018 17:00;216;354
11/11/2018 18:00;288;1036
11/11/2018 19:00;280;236
11/11/2018 20:00;270;240
11/11/2018 21:00;162;84
11/11/2018 22:00;110;46
11/11/2018 23:00;40;98
12/11/2018 00:00;;
