1.53
1.38
1.27
1.21
1.16
1.14
1.14
1.09
1.07
1.07
1.08
1.09
1.14
1.23
1.38
1.59
1.83
2.00
2.11
2.21
2.23
2.33
2.44
2.59
2.68
2.58
2.54
2.46
2.30
2.20
2.12
2.04
2.01
1.98
2.04
2.07
2.17
2.33
2.57
2.73
2.78
2.70
2.57
2.42
2.24
2.05
1.85
1.70