4.4
4.6
5.7
5.7
5.5
4.6
3.7
3.4
3.3
4.4
6.2
7.7
8.8
9.8
10.2
10.1
9.1
7.8
6.3
4.9
3.5
3.0
2.2
1.9
1.2
0.9
2.1
2.0
1.8
1.5
1.2
1.2
1.1
1.9
3.2
4.7
6.4
7.8
8.9
9.4
8.7
6.6
4.5
3.7
2.9
1.7
1.2
1.2
1.6
0.9
1.9
1.7
1.7
1.4
1.1
0.7
0.5
1.6
3.0
4.4
5.7
6.6
7.9
8.1
7.9
5.9
4.3
3.6
2.1
1.4
1.2
0.4
0.4
-0.2
1.0
0.7
0.5
0.4
0.5
0.3
0.9
2.2
3.8
5.3
7.6
7.9
7.4
7.6
7.4
7.1
6.7
6.6
5.6
5.6
5.6
5.5
5.5
5.4
5.9
6.2
6.2
5.8
5.5
5.3
5.7
6.3
6.8
7.4
8.6
9.4
9.9
9.8
8.8
7.1
6.2
5.2
4.1
4.0
3.1
2.8
2.9
2.8
4.0
3.6
3.3
3.2
3.0
3.4
3.6
4.1
5.5
7.0
8.1
8.9
9.5
10.8
10.2
9.1
7.7
7.2
6.4
5.7
5.4
4.5
3.7
3.7
3.3
3.1
3.1
2.0
1.7
2.1
1.6
2.1
4.7
7.4
9.7
10.1
10.5
10.9
9.9
7.4
6.0
5.4
4.6
4.2
3.6
3.2
3.4
2.5
4.2
3.6
3.8
3.1
2.9
2.9
2.6
3.2
4.5
5.9
7.0
8.4
10.4
10.9
9.8
8.5
7.6
7.0
5.6
5.7
5.9
5.4
5.7
6.6
7.1
7.2
7.1
7.2
7.2
7.2
7.5
8.3
9.3
10.4
11.0
10.7
10.5
10.2
9.9
9.4
8.1
6.7
7.1
7.2
7.4
7.7
7.4
7.2
4.1
4.1
4.1
4.1
4.1
4.1
4.1
4.1
4.1
4.1
5.7
7.9
8.4
9.0
8.4
7.3
5.6
4.9
2.9
2.5
2.1
1.6
1.4
1.2
2.6
2.2
1.9
1.7
1.4
1.5
1.2
2.6
3.6
4.6
5.9
7.0
8.0
8.1
6.6
5.4
4.6
3.7
2.0
2.2
1.7
0.9
0.9
0.1
1.1
1.0
0.7
0.5
0.3
0.2
-0.2
0.7
2.0
3.4
4.7
6.1
6.7
7.1
6.5
4.3
2.6
1.7
0.6
0.4
-0.3
-0.4
-0.9
-0.9
0.3
0.5
0.4
0.3
0.2
0.2
0.5
1.8
3.5
5.3
7.0
7.9
8.2
8.0
7.4
6.4
4.7
3.4
1.8
1.4
0.7
0.1
0.3
0.0
1.4
0.9
0.8
0.5
0.5
0.1
0.3
1.3
3.0
4.6
5.9
7.6
8.4
8.7
7.3
5.6
5.0
3.8
2.1
1.6
1.0
1.1